<svg width="50.000000" height="50.000000" viewBox="0 0 50 50" fill="none" xmlns="http://www.w3.org/2000/svg" xmlns:xlink="http://www.w3.org/1999/xlink">
	<desc>
			Created with Pixso.
	</desc>
	<defs/>
	<path d="M24.9702 0C28.4268 0 31.6746 0.655518 34.7139 1.96667C37.7532 3.27771 40.4053 5.06555 42.6699 7.3302C44.9343 9.59473 46.7222 12.2368 48.0334 15.2562C49.3445 18.2758 50 21.5137 50 24.9702C50 28.4268 49.3445 31.6746 48.0334 34.714C46.7222 37.7533 44.9343 40.4053 42.6699 42.6698C40.4053 44.9344 37.7532 46.7223 34.7139 48.0333C31.6746 49.3445 28.4268 50 24.9702 50C21.5137 50 18.2756 49.3445 15.2563 48.0333C12.2368 46.7223 9.59473 44.9344 7.33008 42.6698C5.06567 40.4053 3.27783 37.7533 1.96655 34.714C0.655518 31.6746 0 28.4268 0 24.9702C0 21.5137 0.655518 18.2758 1.96655 15.2562C3.27783 12.2368 5.06567 9.59473 7.33008 7.3302C9.59473 5.06555 12.2368 3.27771 15.2563 1.96667C18.2756 0.655518 21.5137 0 24.9702 0ZM34.3862 10.9059L29.0823 10.9059C28.0493 10.9059 27.0957 11.0846 26.2217 11.4421C25.3477 11.7998 24.5828 12.2765 23.9272 12.8724C23.2717 13.4684 22.7651 14.1438 22.4077 14.8987C22.05 15.6536 21.8713 16.4084 21.8713 17.1633L21.8713 20.3218L17.1633 20.3218L17.1633 26.5197L21.8713 26.5197L21.8713 39.0345L28.1287 39.0345L28.1287 26.5197L32.7771 26.5197L32.7771 20.3218L28.1287 20.3218L28.1287 18.7128C28.1287 18.236 28.3174 17.8585 28.6948 17.5804C29.0723 17.3024 29.4001 17.1633 29.6782 17.1633L34.3862 17.1633L34.3862 10.9059Z" fill="#FFFFFF" fill-opacity="1.000000" fill-rule="nonzero"/>
</svg>
