<svg width="151.861328" height="34.200195" viewBox="0 0 151.861 34.2002" fill="none" xmlns="http://www.w3.org/2000/svg" xmlns:xlink="http://www.w3.org/1999/xlink">
	<desc>
			Created with Pixso.
	</desc>
	<defs/>
	<path id="Vector" d="M0 34.2002L34.2 34.2002L34.2 0L0 0L0 34.2002ZM27.6174 13.8096L20.3906 13.8096L20.3906 6.58252L27.6174 6.58252L27.6174 13.8096ZM6.5813 6.58252L13.812 6.58252L13.812 20.3906L27.6174 20.3906L27.6174 27.6172L6.5813 27.6172L6.5813 6.58252ZM56.4707 0C53.0886 0 49.7825 1.00293 46.9705 2.88184C44.1582 4.76074 41.9666 7.43164 40.6724 10.5562C39.3779 13.6807 39.0396 17.1191 39.6992 20.436C40.3591 23.7529 41.9875 26.7998 44.3792 29.1914C46.7705 31.583 49.8174 33.2114 53.1345 33.8716C56.4517 34.5312 59.8899 34.1929 63.0146 32.8984C66.1392 31.604 68.8098 29.4126 70.6887 26.6001C72.5679 23.7881 73.5708 20.4819 73.5708 17.1001C73.5654 12.5664 71.762 8.22021 68.5564 5.01416C65.3506 1.80859 61.0044 0.00537109 56.4707 0ZM56.4707 27.6172C54.3906 27.6172 52.3572 27.0005 50.6274 25.8447C48.8979 24.689 47.5498 23.0469 46.7539 21.125C45.958 19.2031 45.7495 17.0884 46.1553 15.0483C46.5613 13.0078 47.563 11.1338 49.0337 9.66309C50.5046 8.19238 52.3787 7.19043 54.4189 6.78467C56.459 6.37891 58.5737 6.5874 60.4956 7.3833C62.4172 8.1792 64.0598 9.52734 65.2156 11.2568C66.3713 12.9863 66.988 15.02 66.988 17.1001C66.9836 19.8882 65.8743 22.561 63.9028 24.5322C61.9314 26.5039 59.2588 27.6133 56.4707 27.6172ZM134.763 0C131.38 -0.000488281 128.074 1.00244 125.262 2.88135C122.45 4.76025 120.258 7.43066 118.963 10.5552C117.669 13.6797 117.33 17.1182 117.99 20.4351C118.649 23.7524 120.278 26.7993 122.669 29.1909C125.061 31.5825 128.108 33.2114 131.425 33.8711C134.741 34.5312 138.18 34.1929 141.305 32.8984C144.429 31.6045 147.1 29.4126 148.979 26.6006C150.859 23.7881 151.861 20.4819 151.861 17.1001C151.856 12.5669 150.053 8.2207 146.848 5.01465C143.643 1.80908 139.296 0.00585938 134.763 0ZM134.763 27.6172C132.683 27.6177 130.649 27.001 128.919 25.8457C127.189 24.6899 125.841 23.0474 125.045 21.126C124.249 19.2041 124.04 17.0894 124.446 15.0488C124.852 13.0088 125.853 11.1348 127.324 9.66357C128.795 8.19238 130.669 7.19092 132.709 6.78467C134.749 6.37891 136.864 6.58691 138.785 7.3833C140.708 8.1792 142.351 9.52734 143.507 11.2568C144.661 12.9863 145.279 15.02 145.279 17.1001C145.275 19.8877 144.165 22.5601 142.193 24.5317C140.223 26.5034 137.551 27.6128 134.763 27.6172ZM95.616 0C92.2339 0 88.9277 1.00293 86.1157 2.88184C83.3037 4.76074 81.1118 7.43164 79.8176 10.5562C78.5234 13.6807 78.1848 17.1191 78.8445 20.436C79.5044 23.7529 81.1331 26.7998 83.5244 29.1914C85.916 31.583 88.9629 33.2114 92.2798 33.8716C95.5969 34.5312 99.0352 34.1929 102.16 32.8984C105.285 31.604 107.955 29.4126 109.834 26.6001C111.713 23.7881 112.716 20.4819 112.716 17.1001C112.711 12.5664 110.907 8.22021 107.702 5.01416C104.496 1.80859 100.15 0.00537109 95.616 0ZM95.616 27.6172C93.678 27.6182 91.7773 27.0835 90.1238 26.0728C88.4705 25.0615 87.1287 23.6133 86.2463 21.8877C85.3643 20.1621 84.9758 18.2266 85.1243 16.2939C85.2729 14.3618 85.9524 12.5078 87.0879 10.9375C88.2234 9.36719 89.771 8.14062 91.5593 7.39404C93.3479 6.64795 95.3079 6.40967 97.2229 6.70703C99.1382 7.00391 100.934 7.82471 102.412 9.07812C103.89 10.3311 104.994 11.9688 105.6 13.8096L95.616 13.8096L95.616 20.3906L105.6 20.3906C104.906 22.4912 103.567 24.3198 101.775 25.6167C99.9832 26.9141 97.8284 27.6138 95.616 27.6172Z" fill="#252525" fill-opacity="1.000000" fill-rule="nonzero"/>
</svg>
