<svg width="50.000000" height="50.000000" viewBox="0 0 50 50" fill="none" xmlns="http://www.w3.org/2000/svg" xmlns:xlink="http://www.w3.org/1999/xlink">
	<desc>
			Created with Pixso.
	</desc>
	<defs/>
	<path d="M24.9702 0C28.4348 0 31.6807 0.657104 34.7073 1.97131C37.7339 3.28552 40.3823 5.06775 42.6523 7.31775C44.9224 9.56787 46.7144 12.2063 48.0286 15.233C49.3428 18.2596 50 21.5054 50 24.9701C50 28.4349 49.3428 31.6807 48.0286 34.7073C46.7144 37.734 44.9224 40.3823 42.6523 42.6523C40.3823 44.9224 37.7339 46.7145 34.7073 48.0287C31.6807 49.3429 28.4348 50 24.9702 50C21.5054 50 18.2598 49.3429 15.2329 48.0287C12.2063 46.7145 9.56787 44.9224 7.31787 42.6523C5.06763 40.3823 3.28564 37.734 1.97144 34.7073C0.657227 31.6807 0 28.4349 0 24.9701C0 21.5054 0.657227 18.2596 1.97144 15.233C3.28564 12.2063 5.06763 9.56787 7.31787 7.31775C9.56787 5.06775 12.2063 3.28552 15.2329 1.97131C18.2598 0.657104 21.5054 0 24.9702 0ZM17.2043 18.7574L10.9319 18.7574L10.9319 39.0681L17.2043 39.0681L17.2043 18.7574ZM14.0383 17.1445C14.9143 17.1445 15.6611 16.8458 16.2783 16.2485C16.8958 15.6511 17.2043 14.9144 17.2043 14.0382C17.2043 13.1621 16.8958 12.4253 16.2783 11.828C15.6611 11.2306 14.9143 10.9319 14.0383 10.9319C13.1621 10.9319 12.4253 11.2306 11.8279 11.828C11.2305 12.4253 10.9319 13.1621 10.9319 14.0382C10.9319 14.9144 11.2305 15.6511 11.8279 16.2485C12.4253 16.8458 13.1621 17.1445 14.0383 17.1445ZM39.0681 27.2999C39.0681 25.8662 38.6699 24.4624 37.8733 23.0884C37.0769 21.7145 36.0415 20.6691 34.7671 19.9523C33.6121 19.3151 32.2681 18.9766 30.7349 18.9366C29.2014 18.8969 27.7976 19.1558 26.5232 19.7133L26.5232 18.7574L20.3105 18.7574L20.3105 39.0681L26.5232 39.0681L26.5232 26.6428L29.1516 25.3883C29.4702 25.229 29.8984 25.1493 30.436 25.1493C30.9736 25.1493 31.4019 25.2489 31.7205 25.448C31.9595 25.5675 32.1982 25.8264 32.4373 26.2246C32.6763 26.6228 32.7957 26.9813 32.7957 27.2999L32.7957 39.0681L39.0681 39.0681L39.0681 27.2999Z" fill="#FFFFFF" fill-opacity="1.000000" fill-rule="nonzero"/>
</svg>
