<svg width="174.413086" height="35.000000" viewBox="0 0 174.413 35" fill="none" xmlns="http://www.w3.org/2000/svg" xmlns:xlink="http://www.w3.org/1999/xlink">
	<desc>
			Created with Pixso.
	</desc>
	<defs>
		<clipPath id="clip39_257">
			<rect id="Logo" width="174.413162" height="35.000000" fill="white" fill-opacity="0"/>
		</clipPath>
	</defs>
	<g clip-path="url(#clip39_257)">
		<path id="Vector" d="M56.0691 28.4639C55.1875 28.5117 54.3154 28.2607 53.5938 27.7524C53.2925 27.5288 53.0498 27.2354 52.887 26.897C52.7244 26.5586 52.6465 26.186 52.6602 25.8105L52.6602 12.0713C52.6531 12.0132 52.6592 11.9541 52.6782 11.8989C52.6973 11.8433 52.7285 11.793 52.77 11.7515C52.8115 11.71 52.8618 11.6787 52.9172 11.6597C52.9727 11.6406 53.0317 11.6343 53.0898 11.6416L55.5798 11.6416C55.8616 11.6416 55.9949 11.7896 55.9949 12.0713L55.9949 24.7437C55.9949 25.3066 56.2468 25.5884 56.7656 25.5884C56.9856 25.5977 57.2056 25.5728 57.4177 25.5142C57.7141 25.5142 57.8772 25.603 57.8921 25.8701L58.1143 27.7227C58.125 27.7769 58.124 27.8325 58.1113 27.8857C58.0989 27.9395 58.0747 27.9897 58.041 28.0332C58.0073 28.0767 57.9646 28.1128 57.916 28.1382C57.8672 28.1641 57.8137 28.1792 57.7585 28.1821C57.2131 28.3623 56.6433 28.4575 56.0691 28.4639Z" fill="#252525" fill-opacity="1.000000" fill-rule="nonzero"/>
		<path id="Vector" d="M70.075 26.8784C68.824 27.9121 67.2515 28.4775 65.6287 28.4775C64.0056 28.4775 62.4333 27.9121 61.1821 26.8784C60.0825 25.7681 59.4656 24.2686 59.4656 22.7061C59.4656 21.1436 60.0825 19.644 61.1821 18.5337C62.4358 17.5054 64.0071 16.9434 65.6287 16.9434C67.25 16.9434 68.8213 17.5054 70.075 18.5337C71.1494 19.6543 71.7493 21.1465 71.7493 22.6987C71.7493 24.251 71.1494 25.7432 70.075 26.8633L70.075 26.8784ZM63.5239 24.9219C64.1047 25.4478 64.8599 25.7393 65.6433 25.7393C66.4268 25.7393 67.1824 25.4478 67.7629 24.9219C68.2883 24.3179 68.5776 23.5439 68.5776 22.7432C68.5776 21.9424 68.2883 21.1685 67.7629 20.5645C67.1824 20.0386 66.4268 19.7471 65.6433 19.7471C64.8599 19.7471 64.1047 20.0386 63.5239 20.5645C62.9985 21.1685 62.709 21.9424 62.709 22.7432C62.709 23.5439 62.9985 24.3179 63.5239 24.9219Z" fill="#252525" fill-opacity="1.000000" fill-rule="nonzero"/>
		<path id="Vector" d="M85.4595 17.3184C85.7412 17.3184 85.8745 17.4663 85.8745 17.748L85.8745 28.375C85.9004 29.0923 85.7661 29.8062 85.4817 30.4648C85.197 31.124 84.7693 31.7109 84.2292 32.1841C83.031 33.2061 81.4897 33.7354 79.9163 33.666C78.4954 33.7158 77.093 33.3281 75.8999 32.5547C75.3901 32.2197 74.9548 31.7842 74.6211 31.2744C74.2869 30.7642 74.0613 30.1909 73.9583 29.5903C73.9583 29.2939 73.9583 29.1606 74.3584 29.1606L76.8484 29.1606C76.9541 29.1641 77.0566 29.1982 77.1433 29.2588C77.2302 29.3193 77.2976 29.4033 77.3374 29.5015C77.499 29.9512 77.821 30.3262 78.2415 30.5537C78.7542 30.8184 79.325 30.9507 79.9016 30.939C80.2495 30.958 80.5979 30.9077 80.926 30.7905C81.2544 30.6733 81.5562 30.4922 81.8135 30.2573C82.0486 30.0112 82.2317 29.7207 82.3513 29.4023C82.4712 29.084 82.5251 28.7441 82.51 28.4043L82.51 27.4707C81.6187 28.1265 80.5334 28.4658 79.4272 28.4341C78.6531 28.4624 77.8811 28.334 77.1577 28.0562C76.4343 27.7783 75.7747 27.3579 75.218 26.8188C74.1497 25.7134 73.5522 24.2358 73.5522 22.6982C73.5522 21.1611 74.1497 19.6836 75.218 18.5781C75.7773 18.0439 76.438 17.627 77.1609 17.3521C77.8838 17.0771 78.6543 16.9497 79.4272 16.9775C80.5654 16.9473 81.6797 17.3081 82.5842 18L82.5842 17.7627C82.5774 17.7061 82.5833 17.6484 82.6016 17.5942C82.6199 17.54 82.6499 17.4907 82.6895 17.4492C82.7292 17.4082 82.7778 17.3765 82.8313 17.3564C82.885 17.3359 82.9424 17.3281 82.9993 17.333L85.4595 17.3184ZM79.7087 25.7959C80.0906 25.8076 80.4705 25.7358 80.8213 25.5845C81.1721 25.4336 81.4856 25.207 81.7393 24.9214C82.2322 24.2852 82.4995 23.5029 82.4995 22.6982C82.4995 21.8936 82.2322 21.1113 81.7393 20.4751C81.4866 20.1934 81.175 19.9707 80.8269 19.8218C80.4785 19.6733 80.1021 19.603 79.7236 19.6157C79.3374 19.6035 78.9534 19.6753 78.5977 19.8262C78.2419 19.9771 77.9231 20.2036 77.6636 20.4897C77.1177 21.0986 76.8306 21.896 76.8633 22.7134C76.8364 23.522 77.1172 24.311 77.6487 24.9214C77.9089 25.207 78.2278 25.4331 78.5833 25.584C78.939 25.7349 79.3228 25.8071 79.7087 25.7959Z" fill="#252525" fill-opacity="1.000000" fill-rule="nonzero"/>
		<path id="Vector" d="M98.6653 26.8779C97.4116 27.9062 95.8403 28.4683 94.2188 28.4683C92.5974 28.4683 91.0261 27.9062 89.7725 26.8779C88.6973 25.7549 88.0969 24.2603 88.0969 22.7056C88.0969 21.1509 88.6973 19.6562 89.7725 18.5332C91.0273 17.5078 92.5981 16.9473 94.2188 16.9473C95.8396 16.9473 97.4104 17.5078 98.6653 18.5332C99.7397 19.6538 100.339 21.146 100.339 22.6982C100.339 24.2505 99.7397 25.7427 98.6653 26.8628L98.6653 26.8779ZM92.0994 24.9214C92.3835 25.1919 92.7185 25.4028 93.085 25.543C93.4512 25.6826 93.8416 25.7485 94.2336 25.7368C94.6233 25.7466 95.011 25.6802 95.3745 25.54C95.7383 25.3999 96.0708 25.1899 96.353 24.9214C96.8701 24.313 97.1538 23.541 97.1538 22.7427C97.1538 21.9443 96.8701 21.1724 96.353 20.564C96.0708 20.2954 95.7383 20.0854 95.3745 19.9453C95.011 19.8057 94.6233 19.7388 94.2336 19.749C93.8416 19.7368 93.4512 19.8027 93.085 19.9424C92.7185 20.0825 92.3835 20.2939 92.0994 20.564C91.5825 21.1724 91.2988 21.9443 91.2988 22.7427C91.2988 23.541 91.5825 24.313 92.0994 24.9214Z" fill="#252525" fill-opacity="1.000000" fill-rule="nonzero"/>
		<path id="Vector" d="M105.691 14.7988C105.299 15.1416 104.796 15.3306 104.275 15.3306C103.755 15.3306 103.252 15.1416 102.86 14.7988C102.682 14.6309 102.541 14.4287 102.444 14.2046C102.347 13.9805 102.297 13.7388 102.297 13.4941C102.297 13.25 102.347 13.0083 102.444 12.7842C102.541 12.5601 102.682 12.3579 102.86 12.1899C103.256 11.8555 103.757 11.6724 104.275 11.6724C104.793 11.6724 105.295 11.8555 105.691 12.1899C105.868 12.3579 106.01 12.5601 106.107 12.7842C106.203 13.0083 106.253 13.25 106.253 13.4941C106.253 13.7388 106.203 13.9805 106.107 14.2046C106.01 14.4287 105.868 14.6309 105.691 14.7988ZM106.002 28.4639C105.121 28.5073 104.25 28.2568 103.527 27.7524C103.23 27.5259 102.991 27.231 102.832 26.8931C102.672 26.5557 102.595 26.1841 102.608 25.811L102.608 17.748C102.601 17.6899 102.607 17.6309 102.626 17.5752C102.645 17.52 102.676 17.4697 102.718 17.4282C102.759 17.3867 102.81 17.3555 102.865 17.3364C102.92 17.3174 102.979 17.311 103.038 17.3184L105.528 17.3184C105.809 17.3184 105.943 17.4663 105.943 17.748L105.943 24.7437C105.943 25.3071 106.195 25.5884 106.698 25.5884C106.923 25.5967 107.148 25.5718 107.365 25.5142C107.662 25.5142 107.825 25.6035 107.84 25.8701L108.062 27.7227C108.073 27.7769 108.072 27.8325 108.059 27.8862C108.047 27.9395 108.022 27.9902 107.989 28.0332C107.955 28.0771 107.912 28.1128 107.864 28.1387C107.815 28.1641 107.761 28.1792 107.706 28.1821C107.156 28.3633 106.581 28.4585 106.002 28.4639Z" fill="#252525" fill-opacity="1.000000" fill-rule="nonzero"/>
		<path id="Vector" d="M117.221 16.9624C117.999 16.9316 118.775 17.0576 119.503 17.3325C120.231 17.6074 120.897 18.0259 121.46 18.563C122.508 19.688 123.091 21.168 123.091 22.7056C123.091 24.2432 122.508 25.7231 121.46 26.8481C120.9 27.3901 120.235 27.8125 119.506 28.0903C118.778 28.3682 118 28.4951 117.221 28.4639C116.112 28.4883 115.024 28.1504 114.124 27.5005L114.124 32.8506C114.124 33.1323 113.976 33.2656 113.694 33.2656L111.204 33.2656C111.147 33.2764 111.089 33.2729 111.033 33.2559C110.978 33.2388 110.928 33.2085 110.887 33.1675C110.846 33.127 110.816 33.0767 110.799 33.0215C110.782 32.9663 110.778 32.9077 110.789 32.8506L110.789 20.6973C110.806 20.5786 110.796 20.457 110.758 20.3433C110.72 20.229 110.656 20.1255 110.571 20.0405C110.486 19.9556 110.383 19.8916 110.269 19.854C110.155 19.8159 110.033 19.8057 109.915 19.8228L109.425 19.8228C109.099 19.8228 108.936 19.7041 108.936 19.4673L108.936 17.7183C108.928 17.6099 108.958 17.5024 109.02 17.4136C109.082 17.3242 109.173 17.2593 109.277 17.229C109.79 17.043 110.333 16.9526 110.878 16.9624C111.422 16.9141 111.968 17.0298 112.446 17.2935C112.924 17.5576 113.312 17.9585 113.561 18.4443C114.038 17.9614 114.609 17.5811 115.238 17.3262C115.868 17.0713 116.542 16.9478 117.221 16.9624ZM114.909 24.9214C115.174 25.1978 115.491 25.4175 115.843 25.5674C116.194 25.7178 116.572 25.7949 116.955 25.7949C117.337 25.7949 117.715 25.7178 118.067 25.5674C118.418 25.4175 118.736 25.1978 119 24.9214C119.557 24.3003 119.849 23.4868 119.815 22.6538C119.854 21.8198 119.561 21.0044 119 20.3862C118.736 20.1099 118.418 19.8901 118.067 19.7402C117.715 19.5898 117.337 19.5122 116.955 19.5122C116.572 19.5122 116.194 19.5898 115.843 19.7402C115.491 19.8901 115.174 20.1099 114.909 20.3862C114.37 21.0151 114.089 21.8257 114.124 22.6538C114.094 23.481 114.374 24.29 114.909 24.9214Z" fill="#252525" fill-opacity="1.000000" fill-rule="nonzero"/>
		<path id="Vector" d="M130.086 28.4639C128.756 28.5186 127.437 28.2002 126.277 27.5449C125.812 27.2646 125.416 26.8833 125.118 26.4292C124.821 25.9751 124.629 25.46 124.558 24.9214C124.558 24.625 124.662 24.4771 124.988 24.4771L127.167 24.4771C127.27 24.481 127.371 24.5137 127.457 24.5713C127.543 24.6284 127.612 24.709 127.656 24.8027C127.967 25.603 128.782 26.0034 130.086 26.0034C130.541 26.0244 130.994 25.9326 131.405 25.7368C131.547 25.6729 131.669 25.5713 131.758 25.4434C131.846 25.3154 131.899 25.1655 131.909 25.0103C131.909 24.625 131.672 24.3584 131.198 24.1802C130.635 23.9932 130.054 23.8687 129.464 23.8101C128.765 23.731 128.072 23.6069 127.389 23.4395C126.724 23.2891 126.12 22.9434 125.655 22.4463C125.38 22.1089 125.178 21.7183 125.061 21.2993C124.944 20.8804 124.915 20.4414 124.975 20.0107C125.034 19.5796 125.182 19.1655 125.409 18.7944C125.635 18.4229 125.936 18.1021 126.292 17.8516C127.36 17.1714 128.614 16.8398 129.879 16.9033C131.104 16.8618 132.315 17.1646 133.376 17.7778C133.804 18.02 134.172 18.3545 134.455 18.7568C134.737 19.1597 134.925 19.6201 135.007 20.1045C135.007 20.4009 134.874 20.5493 134.607 20.5493L132.413 20.5493C132.321 20.5547 132.229 20.5322 132.15 20.4844C132.07 20.437 132.007 20.3667 131.969 20.2822C131.822 19.9316 131.546 19.6504 131.198 19.4971C130.805 19.2915 130.366 19.1895 129.923 19.2007C129.489 19.1768 129.055 19.2637 128.663 19.4526C128.525 19.5059 128.406 19.5991 128.322 19.7207C128.237 19.8423 128.191 19.9863 128.189 20.1343C128.198 20.3369 128.273 20.5312 128.401 20.6885C128.529 20.8462 128.704 20.958 128.9 21.0088C129.47 21.2231 130.062 21.3726 130.664 21.4531C131.357 21.5444 132.045 21.6733 132.724 21.8389C133.389 21.9893 133.993 22.335 134.458 22.8315C134.708 23.1055 134.9 23.4258 135.025 23.7744C135.149 24.1226 135.204 24.4927 135.185 24.8623C135.198 25.3745 135.077 25.8813 134.836 26.3335C134.594 26.7856 134.24 27.167 133.806 27.4409C132.699 28.1519 131.401 28.5088 130.086 28.4639Z" fill="#252525" fill-opacity="1.000000" fill-rule="nonzero"/>
		<path id="Vector" d="M150.851 27.7227C150.86 27.7754 150.857 27.8291 150.845 27.8809C150.832 27.9331 150.81 27.9814 150.777 28.0244C150.746 28.0674 150.706 28.103 150.66 28.1304C150.614 28.1572 150.563 28.1753 150.51 28.1821C149.969 28.3589 149.404 28.4541 148.835 28.4639C148.272 28.5225 147.703 28.4341 147.184 28.2085C146.664 27.9824 146.212 27.6265 145.871 27.1743C144.825 28.0747 143.47 28.5366 142.092 28.4639C141.451 28.4937 140.812 28.3887 140.215 28.1562C139.618 27.9243 139.075 27.5693 138.623 27.1152C138.174 26.6392 137.826 26.0776 137.6 25.4639C137.373 24.8501 137.273 24.1968 137.304 23.5435L137.304 17.748C137.304 17.4668 137.438 17.3184 137.719 17.3184L140.209 17.3184C140.491 17.3184 140.624 17.4668 140.624 17.748L140.624 23.0986C140.598 23.7651 140.824 24.417 141.261 24.9219C141.479 25.1528 141.745 25.3345 142.038 25.4546C142.332 25.5752 142.649 25.6309 142.966 25.6182C143.291 25.6323 143.615 25.582 143.92 25.4702C144.226 25.3584 144.506 25.187 144.745 24.9663C144.97 24.7334 145.146 24.457 145.26 24.1533C145.376 23.8501 145.426 23.5264 145.412 23.2026L145.412 17.748C145.412 17.4668 145.545 17.3184 145.827 17.3184L148.346 17.3184C148.628 17.3184 148.761 17.4668 148.761 17.748L148.761 24.729C148.761 25.3071 149.013 25.5889 149.502 25.5889C149.732 25.5977 149.962 25.5728 150.184 25.5146C150.24 25.499 150.3 25.4961 150.356 25.5063C150.414 25.5166 150.467 25.5396 150.514 25.5737C150.562 25.6084 150.601 25.6528 150.629 25.7041C150.655 25.7554 150.67 25.812 150.673 25.8701L150.851 27.7227Z" fill="#252525" fill-opacity="1.000000" fill-rule="nonzero"/>
		<path id="Vector" d="M174.402 27.7227C174.415 27.7754 174.417 27.8311 174.406 27.8848C174.395 27.938 174.372 27.9888 174.34 28.0327C174.307 28.0767 174.266 28.1128 174.217 28.1387C174.169 28.1646 174.116 28.1792 174.061 28.1821C173.51 28.3613 172.936 28.4561 172.357 28.4634C171.475 28.5093 170.605 28.2588 169.881 27.752C169.569 27.5352 169.315 27.2446 169.142 26.9058C168.969 26.5674 168.881 26.1909 168.888 25.8105L168.888 22.3276C168.919 21.6631 168.697 21.0112 168.266 20.5044C168.058 20.2729 167.801 20.0903 167.514 19.9697C167.227 19.8496 166.917 19.7939 166.606 19.8081C166.326 19.7974 166.047 19.8506 165.789 19.9634C165.533 20.0767 165.306 20.2466 165.124 20.46C164.732 20.9565 164.532 21.5776 164.561 22.209L164.561 27.6782C164.561 27.9595 164.427 28.1079 164.146 28.1079L161.641 28.1079C161.583 28.1152 161.524 28.1089 161.469 28.0898C161.413 28.0708 161.362 28.0396 161.321 27.998C161.279 27.9565 161.248 27.9062 161.229 27.8506C161.209 27.7954 161.204 27.7363 161.211 27.6782L161.211 22.3276C161.244 21.6704 161.038 21.0229 160.633 20.5044C160.452 20.2866 160.225 20.1113 159.969 19.9912C159.714 19.8706 159.434 19.8081 159.151 19.8081C158.848 19.7959 158.548 19.8477 158.266 19.96C157.984 20.0723 157.731 20.2427 157.521 20.46C157.097 20.9409 156.879 21.5688 156.913 22.209L156.913 27.6782C156.92 27.7363 156.914 27.7954 156.895 27.8506C156.876 27.9062 156.845 27.9565 156.803 27.998C156.762 28.0396 156.711 28.0708 156.656 28.0898C156.6 28.1089 156.541 28.1152 156.483 28.1079L154.067 28.1079C153.785 28.1079 153.652 27.9595 153.652 27.6782L153.652 20.6973C153.67 20.5781 153.659 20.457 153.621 20.3428C153.584 20.229 153.52 20.1255 153.434 20.0405C153.35 19.9556 153.246 19.8916 153.132 19.8535C153.018 19.8159 152.896 19.8057 152.778 19.8228L152.289 19.8228C151.962 19.8228 151.8 19.7041 151.8 19.4673L151.8 17.7183C151.792 17.6099 151.822 17.5024 151.884 17.4136C151.946 17.3242 152.037 17.2593 152.14 17.229C152.653 17.043 153.196 16.9521 153.741 16.9624C154.264 16.9175 154.79 17.022 155.257 17.2632C155.724 17.5044 156.113 17.873 156.379 18.3257C156.879 17.8521 157.472 17.4863 158.119 17.2515C158.767 17.0171 159.456 16.9185 160.144 16.9624C160.812 16.9297 161.478 17.0547 162.088 17.3281C162.699 17.6011 163.236 18.0137 163.656 18.5332C164.147 18 164.75 17.583 165.422 17.311C166.093 17.0396 166.816 16.9204 167.54 16.9624C168.186 16.9321 168.832 17.0361 169.437 17.2686C170.042 17.5005 170.591 17.8555 171.052 18.311C171.503 18.7861 171.851 19.3477 172.078 19.9614C172.305 20.5757 172.406 21.2295 172.371 21.8828L172.371 24.7437C172.371 25.3066 172.623 25.5884 173.098 25.5884C173.327 25.5991 173.557 25.5742 173.779 25.5142C174.086 25.5142 174.249 25.6328 174.269 25.8696L174.402 27.7227Z" fill="#252525" fill-opacity="1.000000" fill-rule="nonzero"/>
		<path id="Vector" d="M0.607666 15.3916C1.70117 10.9966 4.23364 7.09375 7.80176 4.30469C11.3699 1.51514 15.7688 0 20.2979 0C24.8267 0 29.2256 1.51514 32.7937 4.30469C36.3618 7.09375 38.8943 10.9966 39.9878 15.3916L38.2092 15.3916C35.209 15.3472 32.2703 16.2441 29.8057 17.9556C29.6633 18.0586 29.5149 18.1528 29.3608 18.2373L29.1536 18.2373C28.9995 18.1528 28.8511 18.0586 28.7087 17.9556C26.2224 16.2837 23.2939 15.3906 20.2979 15.3906C17.3015 15.3906 14.373 16.2837 11.8867 17.9556C11.7444 18.0586 11.5959 18.1528 11.4421 18.2373L11.2346 18.2373C11.0806 18.1528 10.9321 18.0586 10.7898 17.9556C8.3252 16.2441 5.38647 15.3472 2.38623 15.3916L0.607666 15.3916ZM35.0078 24.6846C35.9209 23.9736 37.0525 23.6016 38.2092 23.6318L40.5955 23.6318L40.5955 18.8745L38.2092 18.8745C36.1716 18.8496 34.1807 19.4839 32.5327 20.6826C31.6052 21.3662 30.4834 21.7354 29.3313 21.7354C28.1792 21.7354 27.0574 21.3662 26.1299 20.6826C24.4402 19.5063 22.4307 18.876 20.3718 18.876C18.313 18.876 16.3035 19.5063 14.6138 20.6826C13.6865 21.3662 12.5647 21.7354 11.4124 21.7354C10.2603 21.7354 9.13843 21.3662 8.21094 20.6826C6.54272 19.4688 4.52319 18.8335 2.46045 18.8745L0 18.8745L0 23.6318L2.38623 23.6318C3.54297 23.6016 4.67456 23.9736 5.58765 24.6846C7.27417 25.8613 9.28149 26.4927 11.3384 26.4927C13.395 26.4927 15.4023 25.8613 17.0889 24.6846C18.0032 23.9756 19.1338 23.604 20.2903 23.6318C21.4475 23.5991 22.5798 23.9712 23.4917 24.6846C25.1814 25.8608 27.1909 26.4912 29.2498 26.4912C31.3086 26.4912 33.3181 25.8608 35.0078 24.6846ZM35.0078 33.1919C35.9209 32.481 37.0525 32.1089 38.2092 32.1396L40.5955 32.1396L40.5955 27.3818L38.2092 27.3818C36.1716 27.3574 34.1807 27.9917 32.5327 29.1899C31.6052 29.8735 30.4834 30.2427 29.3313 30.2427C28.1792 30.2427 27.0574 29.8735 26.1299 29.1899C24.4402 28.0137 22.4307 27.3833 20.3718 27.3833C18.313 27.3833 16.3035 28.0137 14.6138 29.1899C13.6865 29.8735 12.5647 30.2427 11.4124 30.2427C10.2603 30.2427 9.13843 29.8735 8.21094 29.1899C6.54272 27.9761 4.52319 27.3413 2.46045 27.3818L0 27.3818L0 32.1396L2.38623 32.1396C3.54297 32.1089 4.67456 32.481 5.58765 33.1919C7.27417 34.3691 9.28149 35 11.3384 35C13.395 35 15.4023 34.3691 17.0889 33.1919C18.0032 32.4829 19.1338 32.1113 20.2903 32.1396C21.4475 32.1064 22.5798 32.4785 23.4917 33.1919C25.1814 34.3682 27.1909 34.9985 29.2498 34.9985C31.3086 34.9985 33.3181 34.3682 35.0078 33.1919Z" fill="#252525" fill-opacity="1.000000" fill-rule="nonzero"/>
	</g>
</svg>
