<svg width="134.488770" height="26.988281" viewBox="0 0 134.489 26.9883" fill="none" xmlns="http://www.w3.org/2000/svg" xmlns:xlink="http://www.w3.org/1999/xlink">
	<desc>
			Created with Pixso.
	</desc>
	<defs/>
	<path d="M43.2344 21.9482C42.5544 21.9851 41.8821 21.792 41.3257 21.3997C41.0933 21.2273 40.9062 21.001 40.7808 20.7402C40.6553 20.4792 40.5952 20.1919 40.6057 19.9026L40.6057 9.30835C40.6003 9.26343 40.605 9.21777 40.6196 9.17505C40.6343 9.13232 40.6584 9.09375 40.6904 9.06152C40.7227 9.02954 40.7612 9.00537 40.804 8.99072C40.8467 8.97607 40.8923 8.97144 40.9373 8.97681L42.8572 8.97681C43.0742 8.97681 43.1772 9.09106 43.1772 9.30835L43.1772 19.0796C43.1772 19.5139 43.3713 19.7312 43.7715 19.7312C43.9412 19.738 44.1106 19.719 44.2744 19.6741C44.5029 19.6741 44.6287 19.7424 44.6401 19.9482L44.8115 21.3767C44.8196 21.4185 44.8188 21.4614 44.8091 21.5027C44.7996 21.5439 44.781 21.583 44.7549 21.6165C44.729 21.6499 44.696 21.6777 44.6584 21.6975C44.6208 21.7173 44.5796 21.7288 44.5371 21.7312C44.1167 21.8701 43.6772 21.9434 43.2344 21.9482Z" fill="#252525" fill-opacity="1.000000" fill-rule="nonzero"/>
	<path d="M54.0344 20.7253C53.0696 21.5225 51.8572 21.9585 50.6057 21.9585C49.3542 21.9585 48.1421 21.5225 47.1772 20.7253C46.3293 19.8694 45.8535 18.7131 45.8535 17.5083C45.8535 16.3032 46.3293 15.1472 47.1772 14.291C48.1438 13.498 49.3555 13.0647 50.6057 13.0647C51.856 13.0647 53.0676 13.498 54.0344 14.291C54.8628 15.155 55.3252 16.3057 55.3252 17.5024C55.3252 18.6995 54.8628 19.8501 54.0344 20.7139L54.0344 20.7253ZM48.9829 19.2168C49.4307 19.6223 50.0129 19.8469 50.6172 19.8469C51.2212 19.8469 51.8037 19.6223 52.2515 19.2168C52.6567 18.751 52.8799 18.1543 52.8799 17.5369C52.8799 16.9194 52.6567 16.3228 52.2515 15.8567C51.8037 15.4514 51.2212 15.2266 50.6172 15.2266C50.0129 15.2266 49.4307 15.4514 48.9829 15.8567C48.5776 16.3228 48.3545 16.9194 48.3545 17.5369C48.3545 18.1543 48.5776 18.751 48.9829 19.2168Z" fill="#252525" fill-opacity="1.000000" fill-rule="nonzero"/>
	<path d="M65.8972 13.3538C66.1143 13.3538 66.2173 13.468 66.2173 13.6853L66.2173 21.8796C66.2371 22.4326 66.1335 22.9832 65.9143 23.4912C65.6948 23.9993 65.365 24.4521 64.9487 24.8167C64.0244 25.6047 62.8362 26.0129 61.6228 25.9595C60.5271 25.998 59.4458 25.699 58.5256 25.1023C58.1328 24.8445 57.7971 24.5083 57.5398 24.1152C57.282 23.7219 57.1082 23.28 57.0286 22.8167C57.0286 22.5881 57.0286 22.4854 57.3372 22.4854L59.2571 22.4854C59.3386 22.488 59.4177 22.5144 59.4846 22.561C59.5515 22.6077 59.6035 22.6726 59.6343 22.748C59.7588 23.0952 60.0071 23.3843 60.3315 23.5596C60.7268 23.7634 61.1667 23.8657 61.6116 23.8567C61.8799 23.8713 62.1484 23.8325 62.4016 23.7422C62.6545 23.6521 62.8872 23.5122 63.0857 23.3311C63.2671 23.1416 63.4082 22.9172 63.5005 22.6716C63.5928 22.4263 63.6345 22.1646 63.6228 21.9023L63.6228 21.1824C62.9355 21.688 62.0989 21.9495 61.2458 21.9253C60.6487 21.947 60.0535 21.8479 59.4956 21.6338C58.938 21.4197 58.4292 21.0952 58 20.6794C57.1763 19.8271 56.7156 18.688 56.7156 17.5024C56.7156 16.3169 57.1763 15.1777 58 14.3252C58.4314 13.9133 58.9407 13.592 59.498 13.3799C60.0557 13.168 60.6497 13.0698 61.2458 13.0911C62.1235 13.0679 62.9827 13.3462 63.6799 13.8796L63.6799 13.6968C63.6748 13.6528 63.6794 13.6084 63.6934 13.5667C63.7075 13.5249 63.7307 13.4868 63.7612 13.4551C63.792 13.4231 63.8293 13.3987 63.8706 13.3833C63.9119 13.3677 63.9561 13.3616 64 13.3652L65.8972 13.3538ZM61.4629 19.8909C61.7573 19.9001 62.0503 19.8445 62.3208 19.7278C62.5913 19.6113 62.833 19.437 63.0286 19.2168C63.4087 18.7261 63.6147 18.123 63.6147 17.5024C63.6147 16.8818 63.4087 16.2788 63.0286 15.7881C62.8337 15.571 62.5935 15.3989 62.325 15.2844C62.0564 15.1699 61.7661 15.1157 61.4744 15.1252C61.1765 15.116 60.8804 15.1714 60.606 15.2878C60.3318 15.4043 60.0859 15.5789 59.8857 15.7996C59.4648 16.2688 59.2434 16.8838 59.2686 17.5139C59.248 18.1377 59.4646 18.7461 59.8743 19.2168C60.075 19.4368 60.3208 19.6111 60.595 19.7275C60.8691 19.8438 61.1653 19.8997 61.4629 19.8909Z" fill="#252525" fill-opacity="1.000000" fill-rule="nonzero"/>
	<path d="M76.0801 20.7253C75.1135 21.5183 73.9019 21.9517 72.6514 21.9517C71.4011 21.9517 70.1895 21.5183 69.2229 20.7253C68.3938 19.8594 67.9309 18.707 67.9309 17.5081C67.9309 16.3093 68.3938 15.1567 69.2229 14.291C70.1904 13.5 71.4019 13.0679 72.6514 13.0679C73.9011 13.0679 75.1125 13.5 76.0801 14.291C76.9084 15.1548 77.3711 16.3054 77.3711 17.5024C77.3711 18.6992 76.9084 19.8499 76.0801 20.7139L76.0801 20.7253ZM71.0171 19.2166C71.2363 19.425 71.4946 19.5879 71.7771 19.6958C72.0596 19.8037 72.3606 19.8547 72.6628 19.8452C72.9631 19.853 73.2622 19.8015 73.5427 19.6936C73.8232 19.5857 74.0796 19.4238 74.2971 19.2166C74.6958 18.7476 74.9148 18.1521 74.9148 17.5366C74.9148 16.9211 74.6958 16.3257 74.2971 15.8567C74.0796 15.6497 73.8232 15.4875 73.5427 15.3796C73.2622 15.272 72.9631 15.2202 72.6628 15.228C72.3606 15.2188 72.0596 15.2695 71.7771 15.3774C71.4946 15.4854 71.2363 15.6484 71.0171 15.8567C70.6187 16.3257 70.3999 16.9211 70.3999 17.5366C70.3999 18.1521 70.6187 18.7476 71.0171 19.2166Z" fill="#252525" fill-opacity="1.000000" fill-rule="nonzero"/>
	<path d="M81.4971 11.4111C81.1951 11.6755 80.8071 11.8213 80.4058 11.8213C80.0044 11.8213 79.6165 11.6755 79.3145 11.4111C79.1775 11.282 79.0684 11.126 78.9937 10.9531C78.9192 10.78 78.8806 10.5938 78.8806 10.4055C78.8806 10.217 78.9192 10.0308 78.9937 9.85767C79.0684 9.68481 79.1775 9.52905 79.3145 9.39966C79.6196 9.14185 80.0061 9.00049 80.4058 9.00049C80.8054 9.00049 81.1919 9.14185 81.4971 9.39966C81.6343 9.52905 81.7434 9.68481 81.8179 9.85767C81.8926 10.0308 81.9309 10.217 81.9309 10.4055C81.9309 10.5938 81.8926 10.78 81.8179 10.9531C81.7434 11.126 81.6343 11.282 81.4971 11.4111ZM81.7373 21.9482C81.0579 21.9817 80.3867 21.7888 79.8286 21.3997C79.5996 21.2249 79.4158 20.9976 79.2927 20.7371C79.1692 20.4768 79.1101 20.1904 79.1201 19.9026L79.1201 13.6853C79.1145 13.6406 79.1191 13.595 79.134 13.5522C79.1487 13.5095 79.1729 13.4707 79.2048 13.4387C79.2368 13.4067 79.2756 13.3826 79.3184 13.3679C79.3611 13.3533 79.4067 13.3484 79.4514 13.354L81.3716 13.354C81.5886 13.354 81.6914 13.4683 81.6914 13.6853L81.6914 19.0796C81.6914 19.5139 81.8857 19.7312 82.2744 19.7312C82.4478 19.7373 82.6208 19.718 82.7886 19.6741C83.0171 19.6741 83.1428 19.7424 83.1543 19.9482L83.3257 21.377C83.334 21.4185 83.3333 21.4614 83.3235 21.5027C83.3137 21.5439 83.2952 21.583 83.2693 21.6165C83.2432 21.6499 83.2104 21.6777 83.1729 21.6975C83.1353 21.7173 83.0938 21.7288 83.0515 21.7312C82.6272 21.8708 82.1838 21.9441 81.7373 21.9482Z" fill="#252525" fill-opacity="1.000000" fill-rule="nonzero"/>
	<path d="M90.3884 13.0796C90.9883 13.0559 91.5867 13.1528 92.1479 13.365C92.7095 13.5769 93.2229 13.8997 93.657 14.3137C94.4653 15.1812 94.9148 16.3225 94.9148 17.5081C94.9148 18.6936 94.4653 19.835 93.657 20.7024C93.2249 21.1204 92.7124 21.446 92.1504 21.6602C91.5886 21.8743 90.9893 21.9724 90.3884 21.948C89.5327 21.9673 88.6941 21.7063 88 21.2053L88 25.3311C88 25.5481 87.8857 25.6509 87.6685 25.6509L85.7485 25.6509C85.7048 25.6592 85.6597 25.6565 85.6169 25.6433C85.5745 25.6301 85.5356 25.6069 85.5042 25.5752C85.4727 25.5437 85.4492 25.5051 85.4363 25.4624C85.4229 25.4199 85.4204 25.3748 85.4285 25.3311L85.4285 15.9595C85.4419 15.8679 85.4338 15.7744 85.4048 15.6863C85.3755 15.5984 85.3262 15.5186 85.2607 15.4531C85.1953 15.3875 85.1155 15.3384 85.0273 15.3091C84.9395 15.28 84.8459 15.272 84.7542 15.2852L84.3772 15.2852C84.1257 15.2852 84 15.1938 84 15.011L84 13.6624C83.9939 13.5789 84.0168 13.4961 84.0647 13.4275C84.1125 13.3586 84.1824 13.3086 84.2627 13.2852C84.6582 13.1416 85.0764 13.0718 85.4971 13.0796C85.9165 13.0425 86.3374 13.1313 86.7061 13.335C87.0745 13.5386 87.3738 13.8477 87.5657 14.2224C87.9338 13.8501 88.374 13.5566 88.8594 13.3601C89.3447 13.1636 89.865 13.0681 90.3884 13.0796ZM88.6057 19.2166C88.8093 19.4297 89.0542 19.5991 89.3252 19.7148C89.5964 19.8308 89.8882 19.8904 90.1829 19.8904C90.4775 19.8904 90.7693 19.8308 91.0403 19.7148C91.3113 19.5991 91.5562 19.4297 91.76 19.2166C92.1892 18.738 92.4148 18.1106 92.3884 17.468C92.4185 16.8252 92.1924 16.1963 91.76 15.7195C91.5562 15.5066 91.3113 15.3372 91.0403 15.2214C90.7693 15.1055 90.4775 15.0459 90.1829 15.0459C89.8882 15.0459 89.5964 15.1055 89.3252 15.2214C89.0542 15.3372 88.8093 15.5066 88.6057 15.7195C88.1899 16.2048 87.9734 16.8296 88 17.468C87.9768 18.1062 88.1929 18.7297 88.6057 19.2166Z" fill="#252525" fill-opacity="1.000000" fill-rule="nonzero"/>
	<path d="M100.309 21.9482C99.2825 21.9905 98.2654 21.7451 97.3713 21.2397C97.0127 21.0237 96.7073 20.7297 96.4778 20.3794C96.2483 20.0293 96.1006 19.6318 96.0457 19.2168C96.0457 18.9883 96.1257 18.874 96.3772 18.874L98.0571 18.874C98.137 18.8772 98.2146 18.9021 98.281 18.9468C98.3477 18.991 98.4006 19.0527 98.4343 19.1255C98.6743 19.7427 99.3027 20.051 100.309 20.051C100.659 20.0671 101.009 19.9966 101.326 19.8455C101.435 19.7961 101.529 19.7178 101.597 19.6191C101.666 19.5205 101.706 19.4053 101.714 19.2854C101.714 18.9883 101.531 18.7825 101.166 18.6455C100.732 18.501 100.283 18.4053 99.8286 18.3596C99.2896 18.2986 98.7554 18.2031 98.2285 18.074C97.7163 17.958 97.2505 17.6914 96.8914 17.3083C96.6799 17.0479 96.5242 16.7468 96.4338 16.4236C96.3438 16.1006 96.321 15.7625 96.3669 15.4302C96.4131 15.0977 96.5271 14.7786 96.7019 14.4922C96.8767 14.2058 97.1084 13.9585 97.3828 13.7654C98.2065 13.2407 99.1731 12.9851 100.148 13.0339C101.093 13.0022 102.027 13.2356 102.846 13.7083C103.176 13.895 103.459 14.1531 103.677 14.4634C103.894 14.7739 104.04 15.1289 104.103 15.5024C104.103 15.7312 104 15.8455 103.794 15.8455L102.103 15.8455C102.031 15.8496 101.961 15.8323 101.9 15.7957C101.838 15.7588 101.79 15.7046 101.76 15.6396C101.647 15.3691 101.434 15.1521 101.166 15.0339C100.863 14.8755 100.524 14.7969 100.183 14.8054C99.8479 14.7874 99.5137 14.854 99.2114 14.9998C99.1047 15.0408 99.0132 15.1128 98.948 15.2065C98.8828 15.3003 98.8472 15.4114 98.8457 15.5254C98.853 15.6816 98.9102 15.8315 99.009 15.9529C99.1077 16.0742 99.2427 16.1606 99.3943 16.1997C99.833 16.3652 100.29 16.4802 100.754 16.5425C101.289 16.613 101.819 16.7122 102.343 16.8396C102.855 16.9558 103.321 17.2224 103.68 17.6055C103.872 17.8164 104.021 18.0635 104.117 18.3323C104.213 18.6011 104.255 18.886 104.24 19.1711C104.25 19.5662 104.157 19.957 103.971 20.3057C103.784 20.6541 103.511 20.9485 103.177 21.1597C102.323 21.708 101.323 21.9829 100.309 21.9482Z" fill="#252525" fill-opacity="1.000000" fill-rule="nonzero"/>
	<path d="M116.32 21.377C116.327 21.4175 116.324 21.459 116.315 21.4988C116.305 21.5388 116.288 21.5762 116.263 21.6094C116.239 21.6423 116.208 21.6702 116.173 21.6909C116.137 21.7119 116.098 21.7256 116.057 21.7312C115.64 21.8674 115.205 21.9407 114.766 21.9482C114.332 21.9934 113.893 21.9255 113.493 21.7512C113.091 21.5771 112.743 21.3025 112.48 20.9541C111.673 21.6479 110.629 22.0042 109.566 21.9482C109.072 21.9709 108.579 21.8901 108.119 21.7112C107.658 21.532 107.24 21.2585 106.891 20.9082C106.545 20.5413 106.277 20.1082 106.102 19.635C105.927 19.1616 105.85 18.658 105.874 18.1541L105.874 13.6855C105.874 13.4683 105.977 13.354 106.194 13.354L108.114 13.354C108.332 13.354 108.434 13.4683 108.434 13.6855L108.434 17.811C108.414 18.3252 108.589 18.8279 108.926 19.2168C109.094 19.3953 109.298 19.5352 109.525 19.6279C109.751 19.7207 109.995 19.7637 110.24 19.7539C110.49 19.7649 110.74 19.7263 110.976 19.6399C111.211 19.5535 111.427 19.4214 111.611 19.2512C111.785 19.0718 111.921 18.8584 112.009 18.6245C112.098 18.3906 112.137 18.1409 112.126 17.8911L112.126 13.6855C112.126 13.4683 112.229 13.354 112.446 13.354L114.389 13.354C114.606 13.354 114.708 13.4683 114.708 13.6855L114.708 19.0684C114.708 19.5139 114.903 19.7312 115.28 19.7312C115.457 19.738 115.634 19.7188 115.806 19.6741C115.849 19.6619 115.895 19.6597 115.938 19.6677C115.983 19.6755 116.024 19.6934 116.061 19.7197C116.097 19.7463 116.127 19.7805 116.149 19.8201C116.169 19.8596 116.181 19.9036 116.183 19.9482L116.32 21.377Z" fill="#252525" fill-opacity="1.000000" fill-rule="nonzero"/>
	<path d="M134.48 21.3767C134.49 21.4177 134.491 21.4604 134.483 21.5017C134.474 21.543 134.457 21.582 134.432 21.616C134.407 21.6497 134.375 21.6777 134.337 21.6975C134.301 21.7175 134.26 21.729 134.217 21.731C133.792 21.8691 133.35 21.9424 132.903 21.9482C132.223 21.9832 131.552 21.7903 130.994 21.3997C130.753 21.2322 130.558 21.0081 130.424 20.7471C130.29 20.4858 130.223 20.1958 130.229 19.9023L130.229 17.2168C130.252 16.7043 130.081 16.2017 129.749 15.811C129.589 15.6323 129.39 15.4915 129.169 15.3987C128.948 15.3059 128.708 15.2632 128.469 15.2739C128.252 15.2656 128.038 15.3069 127.839 15.3938C127.641 15.481 127.466 15.6118 127.326 15.7766C127.024 16.1597 126.87 16.6384 126.891 17.1252L126.891 21.3425C126.891 21.5596 126.789 21.6738 126.571 21.6738L124.64 21.6738C124.595 21.6794 124.55 21.6746 124.507 21.6599C124.464 21.6453 124.425 21.6211 124.393 21.5891C124.361 21.5571 124.337 21.5183 124.322 21.4756C124.307 21.4329 124.303 21.3875 124.309 21.3425L124.309 17.2168C124.334 16.71 124.175 16.2109 123.863 15.811C123.723 15.6431 123.549 15.5078 123.351 15.415C123.154 15.3223 122.938 15.2739 122.72 15.2739C122.487 15.2644 122.255 15.3044 122.038 15.3911C121.821 15.4778 121.625 15.6091 121.463 15.7766C121.136 16.1475 120.968 16.6318 120.994 17.1252L120.994 21.3425C121 21.3875 120.995 21.4329 120.98 21.4756C120.966 21.5183 120.942 21.5571 120.91 21.5891C120.878 21.6211 120.839 21.6453 120.797 21.6599C120.753 21.6746 120.708 21.6794 120.663 21.6738L118.8 21.6738C118.583 21.6738 118.48 21.5596 118.48 21.3425L118.48 15.9595C118.494 15.8679 118.486 15.7744 118.456 15.6865C118.427 15.5986 118.378 15.5186 118.312 15.4531C118.247 15.3875 118.167 15.3384 118.079 15.3091C117.991 15.28 117.897 15.272 117.806 15.2854L117.428 15.2854C117.177 15.2854 117.052 15.1938 117.052 15.011L117.052 13.6624C117.046 13.5791 117.069 13.4961 117.116 13.4275C117.165 13.3589 117.234 13.3086 117.314 13.2854C117.71 13.1416 118.128 13.072 118.549 13.0796C118.952 13.0452 119.358 13.1257 119.718 13.3118C120.078 13.4978 120.377 13.7817 120.583 14.1311C120.968 13.7656 121.425 13.4836 121.925 13.3027C122.424 13.1218 122.955 13.0459 123.486 13.0796C124.001 13.0544 124.514 13.1511 124.985 13.3616C125.456 13.572 125.87 13.8904 126.194 14.291C126.573 13.8799 127.038 13.5581 127.555 13.3484C128.073 13.1389 128.631 13.0471 129.188 13.0796C129.687 13.0562 130.185 13.1367 130.651 13.3157C131.118 13.4946 131.542 13.7683 131.897 14.1196C132.245 14.4858 132.513 14.9189 132.688 15.3923C132.863 15.8657 132.94 16.3699 132.914 16.8738L132.914 19.0796C132.914 19.5139 133.109 19.731 133.474 19.731C133.651 19.7393 133.829 19.72 134 19.6738C134.237 19.6738 134.362 19.7654 134.377 19.9482L134.48 21.3767Z" fill="#252525" fill-opacity="1.000000" fill-rule="nonzero"/>
	<path d="M0.468506 11.8682C1.31177 8.47925 3.2644 5.46973 6.01587 3.31909C8.76733 1.16846 12.1592 0 15.6514 0C19.1436 0 22.5356 1.16846 25.2869 3.31909C28.0383 5.46973 29.991 8.47925 30.8342 11.8682L29.4629 11.8682C27.1494 11.8342 24.8833 12.5256 22.9829 13.8455C22.873 13.9248 22.7585 13.9973 22.6399 14.0625L22.48 14.0625C22.3613 13.9973 22.2468 13.9248 22.1372 13.8455C20.22 12.5562 17.9619 11.8674 15.6514 11.8674C13.3411 11.8674 11.083 12.5562 9.16577 13.8455C9.05591 13.9248 8.94141 13.9973 8.82275 14.0625L8.66284 14.0625C8.54419 13.9973 8.42969 13.9248 8.32007 13.8455C6.41943 12.5256 4.15356 11.8342 1.84009 11.8682L0.468506 11.8682ZM26.9944 19.0339C27.6982 18.4856 28.5708 18.199 29.4629 18.2224L31.3027 18.2224L31.3027 14.554L29.4629 14.554C27.8916 14.5349 26.3564 15.0239 25.0857 15.9482C24.3706 16.4753 23.5056 16.7598 22.6172 16.7598C21.7288 16.7598 20.8638 16.4753 20.1487 15.9482C18.8457 15.0413 17.2961 14.5549 15.7085 14.5549C14.1211 14.5549 12.5715 15.0413 11.2686 15.9482C10.5535 16.4753 9.68848 16.7598 8.80005 16.7598C7.91162 16.7598 7.04663 16.4753 6.33154 15.9482C5.04492 15.0122 3.48779 14.5225 1.89722 14.554L0 14.554L0 18.2224L1.84009 18.2224C2.73193 18.199 3.60449 18.4856 4.30859 19.0339C5.60913 19.9417 7.15698 20.4282 8.74292 20.4282C10.3289 20.4282 11.8765 19.9417 13.1772 19.0339C13.8821 18.4875 14.7539 18.2007 15.6458 18.2224C16.5381 18.197 17.4111 18.4839 18.1143 19.0339C19.4172 19.9409 20.9668 20.4272 22.5542 20.4272C24.1418 20.4272 25.6914 19.9409 26.9944 19.0339ZM26.9944 25.594C27.6982 25.0457 28.5708 24.7588 29.4629 24.7825L31.3027 24.7825L31.3027 21.114L29.4629 21.114C27.8916 21.095 26.3564 21.584 25.0857 22.5083C24.3706 23.0354 23.5056 23.3198 22.6172 23.3198C21.7288 23.3198 20.8638 23.0354 20.1487 22.5083C18.8457 21.6013 17.2961 21.115 15.7085 21.115C14.1211 21.115 12.5715 21.6013 11.2686 22.5083C10.5535 23.0354 9.68848 23.3198 8.80005 23.3198C7.91162 23.3198 7.04663 23.0354 6.33154 22.5083C5.04492 21.5723 3.48779 21.0825 1.89722 21.114L0 21.114L0 24.7825L1.84009 24.7825C2.73193 24.7588 3.60449 25.0457 4.30859 25.594C5.60913 26.5017 7.15698 26.9883 8.74292 26.9883C10.3289 26.9883 11.8765 26.5017 13.1772 25.594C13.8821 25.0474 14.7539 24.7607 15.6458 24.7825C16.5381 24.7568 17.4111 25.0439 18.1143 25.594C19.4172 26.501 20.9668 26.9873 22.5542 26.9873C24.1418 26.9873 25.6914 26.501 26.9944 25.594Z" fill="#252525" fill-opacity="1.000000" fill-rule="nonzero"/>
</svg>
