<svg width="30.000000" height="30.000000" viewBox="0 0 30 30" fill="none" xmlns="http://www.w3.org/2000/svg" xmlns:xlink="http://www.w3.org/1999/xlink">
	<desc>
			Created with Pixso.
	</desc>
	<defs/>
	<path id="Vector" d="M14.9822 0C17.061 0 19.0083 0.394531 20.8245 1.18262C22.6404 1.97168 24.2295 3.04102 25.5913 4.39062C26.9534 5.74121 28.0286 7.32422 28.8171 9.13965C29.6057 10.9561 30 12.9033 30 14.9824C30 17.0605 29.6057 19.0088 28.8171 20.8242C28.0286 22.6406 26.9534 24.2295 25.5913 25.5918C24.2295 26.9531 22.6404 28.0283 20.8245 28.8174C19.0083 29.6055 17.061 30 14.9822 30C12.9033 30 10.9558 29.6055 9.13989 28.8174C7.32373 28.0283 5.74072 26.9531 4.39062 25.5918C3.04053 24.2295 1.97144 22.6406 1.18286 20.8242C0.394287 19.0088 0 17.0605 0 14.9824C0 12.9033 0.394287 10.9561 1.18286 9.13965C1.97144 7.32422 3.04053 5.74121 4.39062 4.39062C5.74072 3.04102 7.32373 1.97168 9.13989 1.18262C10.9558 0.394531 12.9033 0 14.9822 0ZM22.4373 11.7559C23.1301 11.2305 23.7395 10.5977 24.2651 9.85645C23.9307 10 23.5901 10.1191 23.2437 10.2148C22.8972 10.3105 22.533 10.3818 22.1506 10.4297C22.533 10.1914 22.8674 9.89844 23.1541 9.55176C23.4409 9.20508 23.644 8.8291 23.7634 8.42285C23.405 8.61426 23.0347 8.78711 22.6523 8.94238C22.27 9.09766 21.8757 9.21191 21.4695 9.2832C21.135 8.94824 20.7407 8.67383 20.2866 8.45898C19.8328 8.24414 19.3311 8.13574 18.7812 8.13574C18.2795 8.13574 17.8076 8.23145 17.3655 8.42285C16.9236 8.61426 16.5413 8.87695 16.2188 9.21191C15.896 9.5459 15.6392 9.93457 15.448 10.376C15.2568 10.8184 15.1614 11.29 15.1614 11.792C15.1614 11.9355 15.1672 12.0791 15.1792 12.2227C15.1912 12.3652 15.209 12.4971 15.2329 12.6162C13.7275 12.5449 12.3298 12.1748 11.0393 11.5059C9.74902 10.8359 8.6499 9.94043 7.74194 8.81738C7.40747 9.36719 7.24023 9.97656 7.24023 10.6455C7.24023 11.2666 7.3894 11.8457 7.68823 12.3838C7.98682 12.9209 8.37524 13.3574 8.85303 13.6914C8.23169 13.6436 7.68213 13.4883 7.20435 13.2256L7.20435 13.2617C7.20435 14.1699 7.48511 14.9521 8.04663 15.6094C8.60815 16.2666 9.30713 16.6787 10.1433 16.8457C9.97607 16.8936 9.8147 16.9297 9.65942 16.9531C9.50415 16.9775 9.34277 16.9893 9.17554 16.9893C9.05615 16.9893 8.94263 16.9834 8.83521 16.9717C8.72754 16.959 8.61401 16.9414 8.49463 16.918C8.73364 17.6348 9.15771 18.2314 9.76709 18.71C10.3765 19.1875 11.0872 19.4268 11.8997 19.4268C11.2783 19.9287 10.5793 20.3164 9.80298 20.5918C9.02637 20.8662 8.21973 21.0039 7.38354 21.0039C7.21631 21.0039 7.06104 20.998 6.91748 20.9854C6.77417 20.9736 6.63086 20.9561 6.48755 20.9316C7.2998 21.458 8.17798 21.8643 9.12183 22.1504C10.0657 22.4375 11.0513 22.5811 12.0789 22.5811C13.7515 22.5811 15.2329 22.2637 16.5232 21.6309C17.8137 20.998 18.8948 20.1855 19.7671 19.1934C20.6392 18.2021 21.3022 17.0908 21.7563 15.8604C22.2102 14.6299 22.4373 13.417 22.4373 12.2227L22.4373 11.7559Z" fill="#252525" fill-opacity="1.000000" fill-rule="nonzero"/>
</svg>
